\relax 
\providecommand\hyper@newdestlabel[2]{}
\providecommand\HyperFirstAtBeginDocument{\AtBeginDocument}
\HyperFirstAtBeginDocument{\ifx\hyper@anchor\@undefined
\global\let\oldcontentsline\contentsline
\gdef\contentsline#1#2#3#4{\oldcontentsline{#1}{#2}{#3}}
\global\let\oldnewlabel\newlabel
\gdef\newlabel#1#2{\newlabelxx{#1}#2}
\gdef\newlabelxx#1#2#3#4#5#6{\oldnewlabel{#1}{{#2}{#3}}}
\AtEndDocument{\ifx\hyper@anchor\@undefined
\let\contentsline\oldcontentsline
\let\newlabel\oldnewlabel
\fi}
\fi}
\global\let\hyper@last\relax 
\gdef\HyperFirstAtBeginDocument#1{#1}
\providecommand\HyField@AuxAddToFields[1]{}
\providecommand\HyField@AuxAddToCoFields[2]{}
\select@language{romanian}
\@writefile{toc}{\select@language{romanian}}
\@writefile{lof}{\select@language{romanian}}
\@writefile{lot}{\select@language{romanian}}
\@writefile{toc}{\contentsline {chapter}{\numberline {1}Introducere}{1}{chapter.1}}
\@writefile{lof}{\addvspace {10\p@ }}
\@writefile{lot}{\addvspace {10\p@ }}
\@writefile{toc}{\contentsline {section}{\numberline {1.1}Context general}{1}{section.1.1}}
\@writefile{toc}{\contentsline {section}{\numberline {1.2}Ideea și scopul lucrării}{1}{section.1.2}}
\@writefile{toc}{\contentsline {section}{\numberline {1.3}Utilitate}{1}{section.1.3}}
\@writefile{toc}{\contentsline {section}{\numberline {1.4}Structura lucrării}{2}{section.1.4}}
\@writefile{toc}{\contentsline {chapter}{\numberline {2}Instrumente de dezvoltare}{3}{chapter.2}}
\@writefile{lof}{\addvspace {10\p@ }}
\@writefile{lot}{\addvspace {10\p@ }}
\@writefile{toc}{\contentsline {section}{\numberline {2.1}Visual Studio}{3}{section.2.1}}
\citation{DevModel}
\citation{ExtendingVisualStudio}
\@writefile{toc}{\contentsline {subsection}{\numberline {2.1.1}Arhitectură}{4}{subsection.2.1.1}}
\@writefile{toc}{\contentsline {subsection}{\numberline {2.1.2}Caracteristici}{4}{subsection.2.1.2}}
\@writefile{lof}{\contentsline {figure}{\numberline {2.1}{\ignorespaces Captură de ecran cu editorul de cod, bare de instrumente și alte caracteristici ale Visual Studio 2015\relax }}{5}{figure.caption.3}}
\citation{dll}
\@writefile{toc}{\contentsline {subsection}{\numberline {2.1.3}Extensibilitate}{7}{subsection.2.1.3}}
\@writefile{toc}{\contentsline {section}{\numberline {2.2}Biblioteci dinamice}{7}{section.2.2}}
\citation{dll}
\@writefile{toc}{\contentsline {section}{\numberline {2.3}Android Studio}{8}{section.2.3}}
\@writefile{toc}{\contentsline {subsection}{\numberline {2.3.1}Arhitectură}{8}{subsection.2.3.1}}
\@writefile{lof}{\contentsline {figure}{\numberline {2.2}{\ignorespaces  Arhitectura sitemului Android  Sursa: \href  {https://letsknowaboutandroid.wordpress.com/about/}{https://letsknowaboutandroid.wordpress.com/about/} \relax }}{9}{figure.caption.4}}
\@writefile{toc}{\contentsline {subsection}{\numberline {2.3.2}Caracteristici}{11}{subsection.2.3.2}}
\@writefile{toc}{\contentsline {subsection}{\numberline {2.3.3}Avantaje}{12}{subsection.2.3.3}}
\@writefile{toc}{\contentsline {section}{\numberline {2.4}CMake și Ez-gen}{12}{section.2.4}}
\@writefile{lof}{\contentsline {figure}{\numberline {2.3}{\ignorespaces Structura unui director sursa:  \^{I}n directorul "Server" se găsesc fișierele care din care se va genera proiectul.  \^{I}n directorul "tinyxml" se găsesc fișiere care construiesc o biblioteca statică.\relax }}{13}{figure.caption.5}}
\@writefile{lof}{\contentsline {figure}{\numberline {2.4}{\ignorespaces Structura unui fișier project.json\relax }}{14}{figure.caption.6}}
\@writefile{toc}{\contentsline {section}{\numberline {2.5}Source Control}{14}{section.2.5}}
\@writefile{toc}{\contentsline {subsection}{\numberline {2.5.1}Bitbucket}{14}{subsection.2.5.1}}
\@writefile{toc}{\contentsline {subsection}{\numberline {2.5.2}SourceTree}{15}{subsection.2.5.2}}
\@writefile{lof}{\contentsline {figure}{\numberline {2.5}{\ignorespaces Captură de ecran cu instrumente conținute de SourceTree\relax }}{15}{figure.caption.7}}
\@writefile{toc}{\contentsline {chapter}{\numberline {3}Arhitectura aplicației}{17}{chapter.3}}
\@writefile{lof}{\addvspace {10\p@ }}
\@writefile{lot}{\addvspace {10\p@ }}
\@writefile{toc}{\contentsline {section}{\numberline {3.1}Componente}{17}{section.3.1}}
\@writefile{lof}{\contentsline {figure}{\numberline {3.1}{\ignorespaces Diagrama simplă a tuturor componentelor Realizată în draw.io\relax }}{17}{figure.caption.8}}
\@writefile{toc}{\contentsline {subsection}{\numberline {3.1.1}Server}{18}{subsection.3.1.1}}
\@writefile{lof}{\contentsline {figure}{\numberline {3.2}{\ignorespaces Fișierul de configurare\relax }}{18}{figure.caption.9}}
\@writefile{lof}{\contentsline {figure}{\numberline {3.3}{\ignorespaces Diagrama UML a serverului Realizată în draw.io\relax }}{19}{figure.caption.10}}
\citation{designpatterns}
\@writefile{lol}{\contentsline {lstlisting}{\numberline {3.1}Implementarea metodei "loadGame"}{20}{lstlisting.3.1}}
\@writefile{toc}{\contentsline {subsection}{\numberline {3.1.2}Resurse dll - Jocuri}{23}{subsection.3.1.2}}
\@writefile{lof}{\contentsline {figure}{\numberline {3.4}{\ignorespaces Diagrama UML a interfeței IGame Realizată în draw.io\relax }}{23}{figure.caption.11}}
\@writefile{lol}{\contentsline {lstlisting}{\numberline {3.2}Enum-ul "Winner"}{23}{lstlisting.3.2}}
\citation{designpatterns}
\@writefile{lol}{\contentsline {lstlisting}{\numberline {3.3}Metoda "getGame"}{24}{lstlisting.3.3}}
\@writefile{lol}{\contentsline {lstlisting}{\numberline {3.4}Exemplu de Singleton\\Sursa: \href  {https://stackoverflow.com/questions/1008019/c-singleton-design-pattern}{https://stackoverflow.com/questions/1008019/c-singleton-design-pattern}}{25}{lstlisting.3.4}}
\@writefile{toc}{\contentsline {subsubsection}{PaperRockScissors}{26}{section*.12}}
\@writefile{lof}{\contentsline {figure}{\numberline {3.5}{\ignorespaces Diagrama jocului PaperRockScissors Realizată în draw.io\relax }}{26}{figure.caption.13}}
\@writefile{lol}{\contentsline {lstlisting}{\numberline {3.5}Enum-ul "Move"}{26}{lstlisting.3.5}}
\@writefile{lol}{\contentsline {lstlisting}{\numberline {3.6}Metoda "messageIsValid"}{26}{lstlisting.3.6}}
\@writefile{lol}{\contentsline {lstlisting}{\numberline {3.7}Metoda "interpretMessage"}{27}{lstlisting.3.7}}
\@writefile{lol}{\contentsline {lstlisting}{\numberline {3.8}Metoda "gameEnded"}{28}{lstlisting.3.8}}
\@writefile{toc}{\contentsline {subsubsection}{FiveInLine}{29}{section*.14}}
\@writefile{lof}{\contentsline {figure}{\numberline {3.6}{\ignorespaces Diagrama jocului FiveInLine Realizată în draw.io\relax }}{29}{figure.caption.15}}
\@writefile{lol}{\contentsline {lstlisting}{\numberline {3.9}Structura "CurrentMove"}{30}{lstlisting.3.9}}
\@writefile{lol}{\contentsline {lstlisting}{\numberline {3.10}"Metoda "checkLine"}{30}{lstlisting.3.10}}
\@writefile{lol}{\contentsline {lstlisting}{\numberline {3.11}"gameEnded" a jocului FiveInLine}{31}{lstlisting.3.11}}
\@writefile{toc}{\contentsline {subsubsection}{Chat}{32}{section*.16}}
\@writefile{lof}{\contentsline {figure}{\numberline {3.7}{\ignorespaces Diagrama Chat-ului Realizată în draw.io\relax }}{32}{figure.caption.17}}
\citation{designpatterns}
\@writefile{toc}{\contentsline {subsection}{\numberline {3.1.3}Resurse dll - Loaders}{33}{subsection.3.1.3}}
\@writefile{lof}{\contentsline {figure}{\numberline {3.8}{\ignorespaces Diagrama interfeței ILoader Realizată în draw.io\relax }}{33}{figure.caption.18}}
\citation{designpatterns}
\@writefile{toc}{\contentsline {subsubsection}{DllLoader}{34}{section*.19}}
\@writefile{lof}{\contentsline {figure}{\numberline {3.9}{\ignorespaces Diagrama clasei DllLoader Realizată în draw.io\relax }}{34}{figure.caption.20}}
\@writefile{lol}{\contentsline {lstlisting}{\numberline {3.12}Antetul metodei "findAllPlayers"}{34}{lstlisting.3.12}}
\@writefile{lol}{\contentsline {lstlisting}{\numberline {3.13}Metoda "sendMessageToPlayer" implementata de DllLoader}{36}{lstlisting.3.13}}
\@writefile{toc}{\contentsline {subsubsection}{TcpIpLoader}{37}{section*.21}}
\@writefile{lof}{\contentsline {figure}{\numberline {3.10}{\ignorespaces Diagrama clasei TcpIpLoader Realizată în draw.io\relax }}{37}{figure.caption.22}}
\@writefile{toc}{\contentsline {subsection}{\numberline {3.1.4}Jucator - Fisier dll}{39}{subsection.3.1.4}}
\@writefile{lof}{\contentsline {figure}{\numberline {3.11}{\ignorespaces Diagrama interfeței IPlayer Realizată în draw.io\relax }}{40}{figure.caption.23}}
\@writefile{lof}{\contentsline {figure}{\numberline {3.12}{\ignorespaces Ierarhia de clase a jucătorilor Realizată în draw.io\relax }}{40}{figure.caption.24}}
\@writefile{lol}{\contentsline {lstlisting}{\numberline {3.14}Metoda "receiveMessage" implementantă de clasa "Player"}{41}{lstlisting.3.14}}
\@writefile{toc}{\contentsline {subsection}{\numberline {3.1.5}Jucator - TCP/IP}{44}{subsection.3.1.5}}
\@writefile{lof}{\contentsline {figure}{\numberline {3.13}{\ignorespaces Diagrama clasei TcpIpPlayer Realizată în draw.io\relax }}{44}{figure.caption.25}}
\citation{designpatterns}
\@writefile{lol}{\contentsline {lstlisting}{\numberline {3.15}Metoda "chooseGame"}{45}{lstlisting.3.15}}
\@writefile{toc}{\contentsline {section}{\numberline {3.2}Cazuri de utilizare}{49}{section.3.2}}
\@writefile{lof}{\contentsline {figure}{\numberline {3.14}{\ignorespaces Diagrama use-case a aplicației server Realizată în draw.io\relax }}{49}{figure.caption.26}}
\@writefile{lof}{\contentsline {figure}{\numberline {3.15}{\ignorespaces Diagrama use-case a aplicației care se conectează la server Realizată în draw.io\relax }}{50}{figure.caption.27}}
\@writefile{toc}{\contentsline {chapter}{\numberline {4}Scenariu de utilizare}{51}{chapter.4}}
\@writefile{lof}{\addvspace {10\p@ }}
\@writefile{lot}{\addvspace {10\p@ }}
\@writefile{toc}{\contentsline {section}{\numberline {4.1}Scenariu folosind fișiere dll}{51}{section.4.1}}
\@writefile{lof}{\contentsline {figure}{\numberline {4.1}{\ignorespaces Structura fișierului de configurare pentru a seta serverul să joace automat 1000 de jocuri de Hârtie-Foarfece-Piatră\relax }}{51}{figure.caption.28}}
\@writefile{lof}{\contentsline {figure}{\numberline {4.2}{\ignorespaces Numele jocului încărcat (primul rând) și rezultatele mai multor meciuri între două strategii de Hârtie-Foarfece-Piatră\relax }}{52}{figure.caption.29}}
\@writefile{lof}{\contentsline {figure}{\numberline {4.3}{\ignorespaces Numărul de victorii ale fiecărei strategii de joc încărcate\relax }}{52}{figure.caption.30}}
\@writefile{toc}{\contentsline {section}{\numberline {4.2}Scenariu folosind conexiune TCP/IP}{53}{section.4.2}}
\@writefile{lof}{\contentsline {figure}{\numberline {4.4}{\ignorespaces Structura fișierului de configurare pentru a seta serverul sa accepte conexiuni TCP/IP\relax }}{53}{figure.caption.31}}
\@writefile{lof}{\contentsline {figure}{\numberline {4.5}{\ignorespaces Consola unui jucător care așteaptă să primească mesajul de start de la server\relax }}{53}{figure.caption.32}}
\@writefile{lof}{\contentsline {figure}{\numberline {4.6}{\ignorespaces Consola serverului care afișează jucătorii care doresc să se conecteze\relax }}{54}{figure.caption.33}}
\@writefile{lof}{\contentsline {figure}{\numberline {4.7}{\ignorespaces Consola unui jucător la terminarea unui meci\relax }}{54}{figure.caption.34}}
\@writefile{lof}{\contentsline {figure}{\numberline {4.8}{\ignorespaces Consola serverului la terminarea tuturor jocurilor din sesiunea curentă\relax }}{55}{figure.caption.35}}
\@writefile{lof}{\contentsline {figure}{\numberline {4.9}{\ignorespaces Activitatea inițială pentru aplicația Android\relax }}{55}{figure.caption.36}}
\@writefile{lof}{\contentsline {figure}{\numberline {4.10}{\ignorespaces Activitatea "GameActivity" la momentul alegerii mutării jucate\relax }}{56}{figure.caption.37}}
\@writefile{lof}{\contentsline {figure}{\numberline {4.11}{\ignorespaces Activitatea "GameActivity" la momentul opțiunilor de rejucare a meciului\relax }}{56}{figure.caption.38}}
\@writefile{lof}{\contentsline {figure}{\numberline {4.12}{\ignorespaces Activitatea inițială la momentul ieșirii din joc\relax }}{57}{figure.caption.39}}
\@writefile{toc}{\contentsline {chapter}{\numberline {5}Concluzii}{58}{chapter.5}}
\@writefile{lof}{\addvspace {10\p@ }}
\@writefile{lot}{\addvspace {10\p@ }}
\bibcite{designpatterns}{1}
\bibcite{cleancode}{2}
\bibcite{programming}{3}
\bibcite{ExtendingVisualStudio}{4}
\bibcite{DevModel}{5}
\bibcite{dll}{6}
